Introduction to R for Excel Users
…
---

## Tibbles

Tibbles have enhanced (and opinionated) printing behavior.

```r
tibble(x = 1:500, y = sample(1:500), z = rnorm(500))
```

```
## # A tibble: 500 x 3
##        x     y       z
##    <int> <int>   <dbl>
##  1     1    95 -1.70  
##  2     2   203  2.62  
##  3     3   496 -0.998 
##  4     4    49  2.92  
##  5     5   301  0.301 
##  6     6   159 -0.0982
##  7     7   435 -0.386 
##  8     8   103  1.28  
##  9     9   190 -1.54  
## 10    10   362  0.909 
## # ... with 490 more rows
```
…
