Data Transformation
…
---

## Filter

Filter `txhousing` to keep rows where `year` is 2008. 

```r
filter(txhousing, year == 2008)
```

```
## # A tibble: 552 x 9
##    city     year month sales   volume median listings inventory  date
##    <chr>   <int> <int> <dbl>    <dbl>  <dbl>    <dbl>     <dbl> <dbl>
##  1 Abilene  2008     1    84  9089942  88800      859       5.3 2008 
##  2 Abilene  2008     2   127 15970270 111900      899       5.6 2008.
##  3 Abilene  2008     3   147 15496685  97500      923       5.9 2008.
##  4 Abilene  2008     4   161 18288157 106900      941       6.1 2008.
##  5 Abilene  2008     5   182 21314933 104000      951       6.3 2008.
##  6 Abilene  2008     6   180 21146068 110400     1000       6.7 2008.
##  7 Abilene  2008     7   171 19502253 106400     1013       7.1 2008.
##  8 Abilene  2008     8   131 16067354 111200      966       7   2009.
##  9 Abilene  2008     9   141 15643014 106900      992       7.2 2009.
## 10 Abilene  2008    10   116 15057270 131600      860       6.3 2009.
## # ... with 542 more rows
```
…
---

## Filter

Filter `txhousing` to keep rows where `year` is 2008 **or** `city` is Lubbock. 

```r
filter(txhousing, year == 2008 | city == "Lubbock")
```

```
## # A tibble: 727 x 9
##    city     year month sales   volume median listings inventory  date
##    <chr>   <int> <int> <dbl>    <dbl>  <dbl>    <dbl>     <dbl> <dbl>
##  1 Abilene  2008     1    84  9089942  88800      859       5.3 2008 
##  2 Abilene  2008     2   127 15970270 111900      899       5.6 2008.
##  3 Abilene  2008     3   147 15496685  97500      923       5.9 2008.
##  4 Abilene  2008     4   161 18288157 106900      941       6.1 2008.
##  5 Abilene  2008     5   182 21314933 104000      951       6.3 2008.
##  6 Abilene  2008     6   180 21146068 110400     1000       6.7 2008.
##  7 Abilene  2008     7   171 19502253 106400     1013       7.1 2008.
##  8 Abilene  2008     8   131 16067354 111200      966       7   2009.
##  9 Abilene  2008     9   141 15643014 106900      992       7.2 2009.
## 10 Abilene  2008    10   116 15057270 131600      860       6.3 2009.
## # ... with 717 more rows
```
…
---

## Filter

Filter `txhousing` to keep rows where `median` is missing. 

```r
filter(txhousing, is.na(median))
```

```
## # A tibble: 616 x 9
##    city             year month sales volume median listings inventory  date
##    <chr>           <int> <int> <dbl>  <dbl>  <dbl>    <dbl>     <dbl> <dbl>
##  1 Brazoria County  2001    10    NA     NA     NA       NA        NA 2002.
##  2 Brazoria County  2003     1    NA     NA     NA       NA        NA 2003 
##  3 Brazoria County  2003     2    NA     NA     NA       NA        NA 2003.
##  4 Brazoria County  2003     3    NA     NA     NA       NA        NA 2003.
##  5 Brazoria County  2003     4    NA     NA     NA       NA        NA 2003.
##  6 Brazoria County  2003     5    NA     NA     NA       NA        NA 2003.
##  7 Brazoria County  2003     6    NA     NA     NA       NA        NA 2003.
##  8 Brazoria County  2003     7    NA     NA     NA       NA        NA 2004.
##  9 Brazoria County  2003     8    NA     NA     NA       NA        NA 2004.
## 10 Brazoria County  2003     9    NA     NA     NA       NA        NA 2004.
## # ... with 606 more rows
```
…
---

## Arrange

If you arrange rows based on multiple columns, each additional column sorts within groupings (if any) defined by previous columns (listed left to right).

```r
arrange(txhousing, desc(city), median)
```

```
## # A tibble: 8,602 x 9
##    city           year month sales   volume median listings inventory  date
##    <chr>         <int> <int> <dbl>    <dbl>  <dbl>    <dbl>     <dbl> <dbl>
##  1 Wichita Falls  2000     2   145 10765000  59800      657       5.2 2000.
##  2 Wichita Falls  2000     1    87  6710000  61200      673       5.5 2000 
##  3 Wichita Falls  2000     3   133  9795000  65500      633       5   2000.
##  4 Wichita Falls  2000     5   129 10795000  66500      690       5.6 2000.
##  5 Wichita Falls  2001     1    99  8620000  66500      767       6.4 2001 
##  6 Wichita Falls  2000     4   113  8465000  68200      662       5.3 2000.
##  7 Wichita Falls  2001     8   152 13640000  68800      874       7.1 2002.
##  8 Wichita Falls  2000    10   101  7860000  69000      741       6.1 2001.
##  9 Wichita Falls  2001     5   136 10805000  69500      840       7   2001.
## 10 Wichita Falls  2000     7   142 12395000  70000      709       5.7 2000.
## # ... with 8,592 more rows
```
…
---

## Select

Select `date`, `city`, and `median` columns from `txhousing`.

```r
select(txhousing, date, city, median)
```

```
## # A tibble: 8,602 x 3
##     date city    median
##    <dbl> <chr>    <dbl>
##  1 2000  Abilene  71400
##  2 2000. Abilene  58700
##  3 2000. Abilene  58100
##  4 2000. Abilene  68600
##  5 2000. Abilene  67300
##  6 2000. Abilene  66900
##  7 2000. Abilene  73500
##  8 2001. Abilene  75000
##  9 2001. Abilene  64500
## 10 2001. Abilene  59300
## # ... with 8,592 more rows
```
…
---

## Select

Rename while selecting.

```r
select(txhousing, city, year, month, median_sale_price = median)
```

```
## # A tibble: 8,602 x 4
##    city     year month median_sale_price
##    <chr>   <int> <int>             <dbl>
##  1 Abilene  2000     1             71400
##  2 Abilene  2000     2             58700
##  3 Abilene  2000     3             58100
##  4 Abilene  2000     4             68600
##  5 Abilene  2000     5             67300
##  6 Abilene  2000     6             66900
##  7 Abilene  2000     7             73500
##  8 Abilene  2000     8             75000
##  9 Abilene  2000     9             64500
## 10 Abilene  2000    10             59300
## # ... with 8,592 more rows
```

---

## Rename

Rename without selecting.

```r
rename(txhousing, median_sale_price = median)
```

```
## # A tibble: 8,602 x 9
##    city     year month sales   volume median_sale_price listings inventory  date
##    <chr>   <int> <int> <dbl>    <dbl>             <dbl>    <dbl>     <dbl> <dbl>
##  1 Abilene  2000     1    72  5380000             71400      701       6.3 2000 
##  2 Abilene  2000     2    98  6505000             58700      746       6.6 2000.
##  3 Abilene  2000     3   130  9285000             58100      784       6.8 2000.
##  4 Abilene  2000     4    98  9730000             68600      785       6.9 2000.
##  5 Abilene  2000     5   141 10590000             67300      794       6.8 2000.
##  6 Abilene  2000     6   156 13910000             66900      780       6.6 2000.
##  7 Abilene  2000     7   152 12635000             73500      742       6.2 2000.
##  8 Abilene  2000     8   131 10710000             75000      765       6.4 2001.
##  9 Abilene  2000     9   104  7615000             64500      771       6.5 2001.
## 10 Abilene  2000    10   101  7040000             59300      764       6.6 2001.
## # ... with 8,592 more rows
```
…
---

## Mutate

Change names in `city` column to be all uppercase. Add a new column `avg_sale` from dividing `volume` by `sales`.

```r
txhousing %>% 
  mutate(city = toupper(city),        
         avg_sale = volume/sales) %>% 
  select(city, year, month, volume, sales, median, avg_sale)
```

```
## # A tibble: 8,602 x 7
##    city     year month   volume sales median avg_sale
##    <chr>   <int> <int>    <dbl> <dbl>  <dbl>    <dbl>
##  1 ABILENE  2000     1  5380000    72  71400   74722.
##  2 ABILENE  2000     2  6505000    98  58700   66378.
##  3 ABILENE  2000     3  9285000   130  58100   71423.
##  4 ABILENE  2000     4  9730000    98  68600   99286.
##  5 ABILENE  2000     5 10590000   141  67300   75106.
##  6 ABILENE  2000     6 13910000   156  66900   89167.
##  7 ABILENE  2000     7 12635000   152  73500   83125 
##  8 ABILENE  2000     8 10710000   131  75000   81756.
##  9 ABILENE  2000     9  7615000   104  64500   73221.
## 10 ABILENE  2000    10  7040000   101  59300   69703.
## # ... with 8,592 more rows
```
…
---

## Group By and Filter

```r
txhousing %>% 
  group_by(city) %>% 
  filter(median > quantile(median, probs = 0.9, na.rm = TRUE))
```

```
## # A tibble: 809 x 9
## # Groups:   city [46]
##    city     year month sales   volume median listings inventory  date
##    <chr>   <int> <int> <dbl>    <dbl>  <dbl>    <dbl>     <dbl> <dbl>
##  1 Abilene  2008    10   116 15057270 131600      860       6.3 2009.
##  2 Abilene  2010     6   169 23216943 127900      932       6.7 2010.
##  3 Abilene  2012     8   220 31687638 130600     1132       7.1 2013.
##  4 Abilene  2013     5   225 31901380 130000      923       5.3 2013.
##  5 Abilene  2013     7   218 32547446 140000      969       5.4 2014.
##  6 Abilene  2014     2   137 17944719 127600      906       5   2014.
##  7 Abilene  2014     5   191 26615130 129300     1001       5.7 2014.
##  8 Abilene  2014     6   230 34398506 135200     1023       5.8 2014.
##  9 Abilene  2014     7   231 35861350 145800     1033       5.8 2014.
## 10 Abilene  2014     8   203 29671329 129200     1024       5.8 2015.
## # ... with 799 more rows
```

---

## Group By and Mutate

```r
txhousing %>% 
  group_by(year) %>% 
  mutate(prop_max = median/max(median, na.rm = TRUE)) %>% 
  select(city, year, month, median, prop_max)
```

```
## # A tibble: 8,602 x 5
## # Groups:   year [16]
##    city     year month median prop_max
##    <chr>   <int> <int>  <dbl>    <dbl>
##  1 Abilene  2000     1  71400    0.419
##  2 Abilene  2000     2  58700    0.344
##  3 Abilene  2000     3  58100    0.341
##  4 Abilene  2000     4  68600    0.402
##  5 Abilene  2000     5  67300    0.395
##  6 Abilene  2000     6  66900    0.392
##  7 Abilene  2000     7  73500    0.431
##  8 Abilene  2000     8  75000    0.440
##  9 Abilene  2000     9  64500    0.378
## 10 Abilene  2000    10  59300    0.348
## # ... with 8,592 more rows
```
